%YAML 1.1
%TAG !u! tag:unity3d.com,2011:
--- !u!114 &11400000
MonoBehaviour:
  m_ObjectHideFlags: 0
  m_CorrespondingSourceObject: {fileID: 0}
  m_PrefabInstance: {fileID: 0}
  m_PrefabAsset: {fileID: 0}
  m_GameObject: {fileID: 0}
  m_Enabled: 1
  m_EditorHideFlags: 0
  m_Script: {fileID: 11500000, guid: bf2edee5c58d82540a51f03df9d42094, type: 3}
  m_Name: Universal Render Pipeline Asset
  m_EditorClassIdentifier: 
  k_AssetVersion: 11
  k_AssetPreviousVersion: 11
  m_RendererType: 1
  m_RendererData: {fileID: 0}
  m_RendererDataList:
  - {fileID: 11400000, guid: 92b803a67bc1ac04f877bbde848c043c, type: 2}
  m_DefaultRendererIndex: 0
  m_RequireDepthTexture: 1
  m_RequireOpaqueTexture: 1
  m_OpaqueDownsampling: 1
  m_SupportsTerrainHoles: 0
  m_SupportsHDR: 1
  m_HDRColorBufferPrecision: 0
  m_MSAA: 1
  m_RenderScale: 1
  m_UpscalingFilter: 0
  m_FsrOverrideSharpness: 0
  m_FsrSharpness: 0.92
  m_EnableLODCrossFade: 1
  m_LODCrossFadeDitheringType: 1
  m_MainLightRenderingMode: 0
  m_MainLightShadowsSupported: 1
  m_MainLightShadowmapResolution: 2048
  m_AdditionalLightsRenderingMode: 0
  m_AdditionalLightsPerObjectLimit: 4
  m_AdditionalLightShadowsSupported: 0
  m_AdditionalLightsShadowmapResolution: 2048
  m_AdditionalLightsShadowResolutionTierLow: 256
  m_AdditionalLightsShadowResolutionTierMedium: 512
  m_AdditionalLightsShadowResolutionTierHigh: 1024
  m_ReflectionProbeBlending: 0
  m_ReflectionProbeBoxProjection: 0
  m_ShadowDistance: 50
  m_ShadowCascadeCount: 1
  m_Cascade2Split: 0.25
  m_Cascade3Split: {x: 0.1, y: 0.3}
  m_Cascade4Split: {x: 0.067, y: 0.2, z: 0.467}
  m_CascadeBorder: 0.2
  m_ShadowDepthBias: 1
  m_ShadowNormalBias: 1
  m_AnyShadowsSupported: 1
  m_SoftShadowsSupported: 0
  m_ConservativeEnclosingSphere: 1
  m_NumIterationsEnclosingSphere: 64
  m_AdditionalLightsCookieResolution: 2048
  m_AdditionalLightsCookieFormat: 3
  m_UseSRPBatcher: 1
  m_SupportsDynamicBatching: 0
  m_MixedLightingSupported: 0
  m_SupportsLightCookies: 0
  m_SupportsLightLayers: 0
  m_DebugLevel: 0
  m_StoreActionsOptimization: 0
  m_EnableRenderGraph: 0
  m_UseAdaptivePerformance: 1
  m_ColorGradingMode: 0
  m_ColorGradingLutSize: 32
  m_UseFastSRGBLinearConversion: 0
  m_ShadowType: 1
  m_LocalShadowsSupported: 0
  m_LocalShadowsAtlasResolution: 256
  m_MaxPixelLights: 0
  m_ShadowAtlasResolution: 256
  m_VolumeFrameworkUpdateMode: 1
  m_Textures:
    blueNoise64LTex: {fileID: 2800000, guid: e3d24661c1e055f45a7560c033dbb837, type: 3}
    bayerMatrixTex: {fileID: 2800000, guid: f9ee4ed84c1d10c49aabb9b210b0fc44, type: 3}
  m_ShaderVariantLogLevel: 0
  m_ShadowCascades: 0
