{
  "dependencies": {
    "com.unity.2d.animation": {
      "version": "9.0.1",
      "depth": 1,
      "source": "registry",
      "dependencies": {
        "com.unity.2d.common": "8.0.1",
        "com.unity.2d.sprite": "1.0.0",
        "com.unity.collections": "1.1.0",
        "com.unity.modules.animation": "1.0.0",
        "com.unity.modules.uielements": "1.0.0"
      },
      "url": "https://packages.unity.com"
    },
    "com.unity.2d.common": {
      "version": "8.0.1",
      "depth": 2,
      "source": "registry",
      "dependencies": {
        "com.unity.2d.sprite": "1.0.0",
        "com.unity.mathematics": "1.1.0",
        "com.unity.modules.uielements": "1.0.0",
        "com.unity.modules.animation": "1.0.0",
        "com.unity.burst": "1.7.3"
      },
      "url": "https://packages.unity.com"
    },
    "com.unity.2d.pixel-perfect": {
      "version": "5.0.2",
      "depth": 1,
      "source": "registry",
      "dependencies": {},
      "url": "https://packages.unity.com"
    },
    "com.unity.2d.psdimporter": {
      "version": "8.0.1",
      "depth": 1,
      "source": "registry",
      "dependencies": {
        "com.unity.2d.animation": "9.0.1",
        "com.unity.2d.common": "8.0.1",
        "com.unity.2d.sprite": "1.0.0"
      },
      "url": "https://packages.unity.com"
    },
    "com.unity.2d.sprite": {
      "version": "1.0.0",
      "depth": 1,
      "source": "builtin",
      "dependencies": {}
    },
    "com.unity.2d.spriteshape": {
      "version": "9.0.1",
      "depth": 1,
      "source": "registry",
      "dependencies": {
        "com.unity.mathematics": "1.1.0",
        "com.unity.2d.common": "8.0.1",
        "com.unity.modules.physics2d": "1.0.0"
      },
      "url": "https://packages.unity.com"
    },
    "com.unity.2d.tilemap": {
      "version": "1.0.0",
      "depth": 1,
      "source": "builtin",
      "dependencies": {
        "com.unity.modules.tilemap": "1.0.0",
        "com.unity.modules.uielements": "1.0.0"
      }
    },
    "com.unity.2d.tilemap.extras": {
      "version": "3.0.2",
      "depth": 1,
      "source": "registry",
      "dependencies": {
        "com.unity.modules.tilemap": "1.0.0",
        "com.unity.2d.tilemap": "1.0.0",
        "com.unity.ugui": "1.0.0",
        "com.unity.modules.jsonserialize": "1.0.0"
      },
      "url": "https://packages.unity.com"
    },
    "com.unity.ai.navigation": {
      "version": "1.1.1",
      "depth": 0,
      "source": "registry",
      "dependencies": {
        "com.unity.modules.ai": "1.0.0"
      },
      "url": "https://packages.unity.com"
    },
    "com.unity.barracuda": {
      "version": "3.0.0",
      "depth": 1,
      "source": "registry",
      "dependencies": {
        "com.unity.burst": "1.6.0",
        "com.unity.modules.jsonserialize": "1.0.0",
        "com.unity.modules.imageconversion": "1.0.0"
      },
      "url": "https://packages.unity.com"
    },
    "com.unity.burst": {
      "version": "1.7.4",
      "depth": 1,
      "source": "registry",
      "dependencies": {
        "com.unity.mathematics": "1.2.1"
      },
      "url": "https://packages.unity.com"
    },
    "com.unity.collections": {
      "version": "1.2.4",
      "depth": 2,
      "source": "registry",
      "dependencies": {
        "com.unity.burst": "1.6.6",
        "com.unity.test-framework": "1.1.31"
      },
      "url": "https://packages.unity.com"
    },
    "com.unity.ext.nunit": {
      "version": "1.0.6",
      "depth": 4,
      "source": "registry",
      "dependencies": {},
      "url": "https://packages.unity.com"
    },
    "com.unity.feature.2d": {
      "version": "1.0.0",
      "depth": 0,
      "source": "builtin",
      "dependencies": {
        "com.unity.2d.animation": "9.0.1",
        "com.unity.2d.pixel-perfect": "5.0.2",
        "com.unity.2d.psdimporter": "8.0.1",
        "com.unity.2d.sprite": "1.0.0",
        "com.unity.2d.spriteshape": "9.0.1",
        "com.unity.2d.tilemap": "1.0.0",
        "com.unity.2d.tilemap.extras": "3.0.2"
      }
    },
    "com.unity.ide.vscode": {
      "version": "1.2.5",
      "depth": 0,
      "source": "registry",
      "dependencies": {},
      "url": "https://packages.unity.com"
    },
    "com.unity.inputsystem": {
      "version": "1.4.4",
      "depth": 0,
      "source": "registry",
      "dependencies": {
        "com.unity.modules.uielements": "1.0.0"
      },
      "url": "https://packages.unity.com"
    },
    "com.unity.mathematics": {
      "version": "1.2.6",
      "depth": 1,
      "source": "registry",
      "dependencies": {},
      "url": "https://packages.unity.com"
    },
    "com.unity.ml-agents": {
      "version": "2.0.1",
      "depth": 0,
      "source": "registry",
      "dependencies": {
        "com.unity.barracuda": "2.0.0",
        "com.unity.modules.imageconversion": "1.0.0",
        "com.unity.modules.jsonserialize": "1.0.0"
      },
      "url": "https://packages.unity.com"
    },
    "com.unity.render-pipelines.core": {
      "version": "14.0.4",
      "depth": 1,
      "source": "builtin",
      "dependencies": {
        "com.unity.ugui": "1.0.0",
        "com.unity.modules.physics": "1.0.0",
        "com.unity.modules.terrain": "1.0.0",
        "com.unity.modules.jsonserialize": "1.0.0"
      }
    },
    "com.unity.render-pipelines.universal": {
      "version": "14.0.4",
      "depth": 0,
      "source": "builtin",
      "dependencies": {
        "com.unity.mathematics": "1.2.1",
        "com.unity.burst": "1.7.3",
        "com.unity.render-pipelines.core": "14.0.4",
        "com.unity.shadergraph": "14.0.4"
      }
    },
    "com.unity.searcher": {
      "version": "4.9.2",
      "depth": 2,
      "source": "registry",
      "dependencies": {},
      "url": "https://packages.unity.com"
    },
    "com.unity.shadergraph": {
      "version": "14.0.4",
      "depth": 1,
      "source": "builtin",
      "dependencies": {
        "com.unity.render-pipelines.core": "14.0.4",
        "com.unity.searcher": "4.9.2"
      }
    },
    "com.unity.sysroot": {
      "version": "2.0.3",
      "depth": 1,
      "source": "registry",
      "dependencies": {},
      "url": "https://packages.unity.com"
    },
    "com.unity.sysroot.linux-x86_64": {
      "version": "2.0.2",
      "depth": 1,
      "source": "registry",
      "dependencies": {
        "com.unity.sysroot": "2.0.3"
      },
      "url": "https://packages.unity.com"
    },
    "com.unity.test-framework": {
      "version": "1.1.33",
      "depth": 3,
      "source": "registry",
      "dependencies": {
        "com.unity.ext.nunit": "1.0.6",
        "com.unity.modules.imgui": "1.0.0",
        "com.unity.modules.jsonserialize": "1.0.0"
      },
      "url": "https://packages.unity.com"
    },
    "com.unity.textmeshpro": {
      "version": "3.0.6",
      "depth": 0,
      "source": "registry",
      "dependencies": {
        "com.unity.ugui": "1.0.0"
      },
      "url": "https://packages.unity.com"
    },
    "com.unity.timeline": {
      "version": "1.7.4",
      "depth": 0,
      "source": "registry",
      "dependencies": {
        "com.unity.modules.director": "1.0.0",
        "com.unity.modules.animation": "1.0.0",
        "com.unity.modules.audio": "1.0.0",
        "com.unity.modules.particlesystem": "1.0.0"
      },
      "url": "https://packages.unity.com"
    },
    "com.unity.toolchain.win-x86_64-linux-x86_64": {
      "version": "2.0.2",
      "depth": 0,
      "source": "registry",
      "dependencies": {
        "com.unity.sysroot": "2.0.3",
        "com.unity.sysroot.linux-x86_64": "2.0.2"
      },
      "url": "https://packages.unity.com"
    },
    "com.unity.ugui": {
      "version": "1.0.0",
      "depth": 0,
      "source": "builtin",
      "dependencies": {
        "com.unity.modules.ui": "1.0.0",
        "com.unity.modules.imgui": "1.0.0"
      }
    },
    "com.veriorpies.parrelsync": {
      "version": "file:C:/Users/gilea/ParrelSync/ParrelSync",
      "depth": 0,
      "source": "local",
      "dependencies": {}
    },
    "com.unity.modules.ai": {
      "version": "1.0.0",
      "depth": 0,
      "source": "builtin",
      "dependencies": {}
    },
    "com.unity.modules.androidjni": {
      "version": "1.0.0",
      "depth": 0,
      "source": "builtin",
      "dependencies": {}
    },
    "com.unity.modules.animation": {
      "version": "1.0.0",
      "depth": 0,
      "source": "builtin",
      "dependencies": {}
    },
    "com.unity.modules.assetbundle": {
      "version": "1.0.0",
      "depth": 0,
      "source": "builtin",
      "dependencies": {}
    },
    "com.unity.modules.audio": {
      "version": "1.0.0",
      "depth": 0,
      "source": "builtin",
      "dependencies": {}
    },
    "com.unity.modules.cloth": {
      "version": "1.0.0",
      "depth": 0,
      "source": "builtin",
      "dependencies": {
        "com.unity.modules.physics": "1.0.0"
      }
    },
    "com.unity.modules.director": {
      "version": "1.0.0",
      "depth": 0,
      "source": "builtin",
      "dependencies": {
        "com.unity.modules.audio": "1.0.0",
        "com.unity.modules.animation": "1.0.0"
      }
    },
    "com.unity.modules.imageconversion": {
      "version": "1.0.0",
      "depth": 0,
      "source": "builtin",
      "dependencies": {}
    },
    "com.unity.modules.imgui": {
      "version": "1.0.0",
      "depth": 0,
      "source": "builtin",
      "dependencies": {}
    },
    "com.unity.modules.jsonserialize": {
      "version": "1.0.0",
      "depth": 0,
      "source": "builtin",
      "dependencies": {}
    },
    "com.unity.modules.particlesystem": {
      "version": "1.0.0",
      "depth": 0,
      "source": "builtin",
      "dependencies": {}
    },
    "com.unity.modules.physics": {
      "version": "1.0.0",
      "depth": 0,
      "source": "builtin",
      "dependencies": {}
    },
    "com.unity.modules.physics2d": {
      "version": "1.0.0",
      "depth": 0,
      "source": "builtin",
      "dependencies": {}
    },
    "com.unity.modules.screencapture": {
      "version": "1.0.0",
      "depth": 0,
      "source": "builtin",
      "dependencies": {
        "com.unity.modules.imageconversion": "1.0.0"
      }
    },
    "com.unity.modules.subsystems": {
      "version": "1.0.0",
      "depth": 1,
      "source": "builtin",
      "dependencies": {
        "com.unity.modules.jsonserialize": "1.0.0"
      }
    },
    "com.unity.modules.terrain": {
      "version": "1.0.0",
      "depth": 0,
      "source": "builtin",
      "dependencies": {}
    },
    "com.unity.modules.terrainphysics": {
      "version": "1.0.0",
      "depth": 0,
      "source": "builtin",
      "dependencies": {
        "com.unity.modules.physics": "1.0.0",
        "com.unity.modules.terrain": "1.0.0"
      }
    },
    "com.unity.modules.tilemap": {
      "version": "1.0.0",
      "depth": 0,
      "source": "builtin",
      "dependencies": {
        "com.unity.modules.physics2d": "1.0.0"
      }
    },
    "com.unity.modules.ui": {
      "version": "1.0.0",
      "depth": 0,
      "source": "builtin",
      "dependencies": {}
    },
    "com.unity.modules.uielements": {
      "version": "1.0.0",
      "depth": 0,
      "source": "builtin",
      "dependencies": {
        "com.unity.modules.ui": "1.0.0",
        "com.unity.modules.imgui": "1.0.0",
        "com.unity.modules.jsonserialize": "1.0.0"
      }
    },
    "com.unity.modules.umbra": {
      "version": "1.0.0",
      "depth": 0,
      "source": "builtin",
      "dependencies": {}
    },
    "com.unity.modules.unityanalytics": {
      "version": "1.0.0",
      "depth": 0,
      "source": "builtin",
      "dependencies": {
        "com.unity.modules.unitywebrequest": "1.0.0",
        "com.unity.modules.jsonserialize": "1.0.0"
      }
    },
    "com.unity.modules.unitywebrequest": {
      "version": "1.0.0",
      "depth": 0,
      "source": "builtin",
      "dependencies": {}
    },
    "com.unity.modules.unitywebrequestassetbundle": {
      "version": "1.0.0",
      "depth": 0,
      "source": "builtin",
      "dependencies": {
        "com.unity.modules.assetbundle": "1.0.0",
        "com.unity.modules.unitywebrequest": "1.0.0"
      }
    },
    "com.unity.modules.unitywebrequestaudio": {
      "version": "1.0.0",
      "depth": 0,
      "source": "builtin",
      "dependencies": {
        "com.unity.modules.unitywebrequest": "1.0.0",
        "com.unity.modules.audio": "1.0.0"
      }
    },
    "com.unity.modules.unitywebrequesttexture": {
      "version": "1.0.0",
      "depth": 0,
      "source": "builtin",
      "dependencies": {
        "com.unity.modules.unitywebrequest": "1.0.0",
        "com.unity.modules.imageconversion": "1.0.0"
      }
    },
    "com.unity.modules.unitywebrequestwww": {
      "version": "1.0.0",
      "depth": 0,
      "source": "builtin",
      "dependencies": {
        "com.unity.modules.unitywebrequest": "1.0.0",
        "com.unity.modules.unitywebrequestassetbundle": "1.0.0",
        "com.unity.modules.unitywebrequestaudio": "1.0.0",
        "com.unity.modules.audio": "1.0.0",
        "com.unity.modules.assetbundle": "1.0.0",
        "com.unity.modules.imageconversion": "1.0.0"
      }
    },
    "com.unity.modules.vehicles": {
      "version": "1.0.0",
      "depth": 0,
      "source": "builtin",
      "dependencies": {
        "com.unity.modules.physics": "1.0.0"
      }
    },
    "com.unity.modules.video": {
      "version": "1.0.0",
      "depth": 0,
      "source": "builtin",
      "dependencies": {
        "com.unity.modules.audio": "1.0.0",
        "com.unity.modules.ui": "1.0.0",
        "com.unity.modules.unitywebrequest": "1.0.0"
      }
    },
    "com.unity.modules.vr": {
      "version": "1.0.0",
      "depth": 0,
      "source": "builtin",
      "dependencies": {
        "com.unity.modules.jsonserialize": "1.0.0",
        "com.unity.modules.physics": "1.0.0",
        "com.unity.modules.xr": "1.0.0"
      }
    },
    "com.unity.modules.wind": {
      "version": "1.0.0",
      "depth": 0,
      "source": "builtin",
      "dependencies": {}
    },
    "com.unity.modules.xr": {
      "version": "1.0.0",
      "depth": 0,
      "source": "builtin",
      "dependencies": {
        "com.unity.modules.physics": "1.0.0",
        "com.unity.modules.jsonserialize": "1.0.0",
        "com.unity.modules.subsystems": "1.0.0"
      }
    }
  }
}
