%YAML 1.1
%TAG !u! tag:unity3d.com,2011:
--- !u!29 &1
OcclusionCullingSettings:
  m_ObjectHideFlags: 0
  serializedVersion: 2
  m_OcclusionBakeSettings:
    smallestOccluder: 5
    smallestHole: 0.25
    backfaceThreshold: 100
  m_SceneGUID: 00000000000000000000000000000000
  m_OcclusionCullingData: {fileID: 0}
--- !u!104 &2
RenderSettings:
  m_ObjectHideFlags: 0
  serializedVersion: 9
  m_Fog: 0
  m_FogColor: {r: 0.5, g: 0.5, b: 0.5, a: 1}
  m_FogMode: 3
  m_FogDensity: 0.01
  m_LinearFogStart: 0
  m_LinearFogEnd: 300
  m_AmbientSkyColor: {r: 0.212, g: 0.227, b: 0.259, a: 1}
  m_AmbientEquatorColor: {r: 0.114, g: 0.125, b: 0.133, a: 1}
  m_AmbientGroundColor: {r: 0.047, g: 0.043, b: 0.035, a: 1}
  m_AmbientIntensity: 1
  m_AmbientMode: 3
  m_SubtractiveShadowColor: {r: 0.42, g: 0.478, b: 0.627, a: 1}
  m_SkyboxMaterial: {fileID: 0}
  m_HaloStrength: 0.5
  m_FlareStrength: 1
  m_FlareFadeSpeed: 3
  m_HaloTexture: {fileID: 0}
  m_SpotCookie: {fileID: 10001, guid: 0000000000000000e000000000000000, type: 0}
  m_DefaultReflectionMode: 0
  m_DefaultReflectionResolution: 128
  m_ReflectionBounces: 1
  m_ReflectionIntensity: 1
  m_CustomReflection: {fileID: 0}
  m_Sun: {fileID: 0}
  m_IndirectSpecularColor: {r: 0, g: 0, b: 0, a: 1}
  m_UseRadianceAmbientProbe: 0
--- !u!157 &3
LightmapSettings:
  m_ObjectHideFlags: 0
  serializedVersion: 12
  m_GIWorkflowMode: 1
  m_GISettings:
    serializedVersion: 2
    m_BounceScale: 1
    m_IndirectOutputScale: 1
    m_AlbedoBoost: 1
    m_EnvironmentLightingMode: 0
    m_EnableBakedLightmaps: 0
    m_EnableRealtimeLightmaps: 0
  m_LightmapEditorSettings:
    serializedVersion: 12
    m_Resolution: 2
    m_BakeResolution: 40
    m_AtlasSize: 1024
    m_AO: 0
    m_AOMaxDistance: 1
    m_CompAOExponent: 1
    m_CompAOExponentDirect: 0
    m_ExtractAmbientOcclusion: 0
    m_Padding: 2
    m_LightmapParameters: {fileID: 0}
    m_LightmapsBakeMode: 1
    m_TextureCompression: 1
    m_FinalGather: 0
    m_FinalGatherFiltering: 1
    m_FinalGatherRayCount: 256
    m_ReflectionCompression: 2
    m_MixedBakeMode: 2
    m_BakeBackend: 0
    m_PVRSampling: 1
    m_PVRDirectSampleCount: 32
    m_PVRSampleCount: 500
    m_PVRBounces: 2
    m_PVREnvironmentSampleCount: 500
    m_PVREnvironmentReferencePointCount: 2048
    m_PVRFilteringMode: 2
    m_PVRDenoiserTypeDirect: 0
    m_PVRDenoiserTypeIndirect: 0
    m_PVRDenoiserTypeAO: 0
    m_PVRFilterTypeDirect: 0
    m_PVRFilterTypeIndirect: 0
    m_PVRFilterTypeAO: 0
    m_PVREnvironmentMIS: 0
    m_PVRCulling: 1
    m_PVRFilteringGaussRadiusDirect: 1
    m_PVRFilteringGaussRadiusIndirect: 5
    m_PVRFilteringGaussRadiusAO: 2
    m_PVRFilteringAtrousPositionSigmaDirect: 0.5
    m_PVRFilteringAtrousPositionSigmaIndirect: 2
    m_PVRFilteringAtrousPositionSigmaAO: 1
    m_ExportTrainingData: 0
    m_TrainingDataDestination: TrainingData
    m_LightProbeSampleCountMultiplier: 4
  m_LightingDataAsset: {fileID: 0}
  m_LightingSettings: {fileID: 0}
--- !u!196 &4
NavMeshSettings:
  serializedVersion: 2
  m_ObjectHideFlags: 0
  m_BuildSettings:
    serializedVersion: 3
    agentTypeID: 0
    agentRadius: 0.5
    agentHeight: 2
    agentSlope: 45
    agentClimb: 0.4
    ledgeDropHeight: 0
    maxJumpAcrossDistance: 0
    minRegionArea: 2
    manualCellSize: 0
    cellSize: 0.16666667
    manualTileSize: 0
    tileSize: 256
    buildHeightMesh: 0
    maxJobWorkers: 0
    preserveTilesOutsideBounds: 0
    debug:
      m_Flags: 0
  m_NavMeshData: {fileID: 0}
--- !u!1001 &691160205
PrefabInstance:
  m_ObjectHideFlags: 0
  serializedVersion: 2
  m_Modification:
    serializedVersion: 3
    m_TransformParent: {fileID: 2145944173}
    m_Modifications:
    - target: {fileID: 2001939604809600228, guid: 3f739463b4a73c04aac223cbe044a06d, type: 3}
      propertyPath: m_DrawMode
      value: 0
      objectReference: {fileID: 0}
    - target: {fileID: 2001939604809600228, guid: 3f739463b4a73c04aac223cbe044a06d, type: 3}
      propertyPath: m_SortingLayer
      value: 1
      objectReference: {fileID: 0}
    - target: {fileID: 3154316546083045980, guid: 3f739463b4a73c04aac223cbe044a06d, type: 3}
      propertyPath: m_Sprite
      value: 
      objectReference: {fileID: -2413806693520163455, guid: 4adeaf2d2b1c7417e89f026626d8264f, type: 3}
    - target: {fileID: 5234425490332279309, guid: 3f739463b4a73c04aac223cbe044a06d, type: 3}
      propertyPath: m_Name
      value: Player
      objectReference: {fileID: 0}
    - target: {fileID: 6668412175965637131, guid: 3f739463b4a73c04aac223cbe044a06d, type: 3}
      propertyPath: m_RootOrder
      value: -1
      objectReference: {fileID: 0}
    - target: {fileID: 6668412175965637131, guid: 3f739463b4a73c04aac223cbe044a06d, type: 3}
      propertyPath: m_LocalPosition.x
      value: 0
      objectReference: {fileID: 0}
    - target: {fileID: 6668412175965637131, guid: 3f739463b4a73c04aac223cbe044a06d, type: 3}
      propertyPath: m_LocalPosition.y
      value: 0
      objectReference: {fileID: 0}
    - target: {fileID: 6668412175965637131, guid: 3f739463b4a73c04aac223cbe044a06d, type: 3}
      propertyPath: m_LocalPosition.z
      value: 0
      objectReference: {fileID: 0}
    - target: {fileID: 6668412175965637131, guid: 3f739463b4a73c04aac223cbe044a06d, type: 3}
      propertyPath: m_LocalRotation.w
      value: 1
      objectReference: {fileID: 0}
    - target: {fileID: 6668412175965637131, guid: 3f739463b4a73c04aac223cbe044a06d, type: 3}
      propertyPath: m_LocalRotation.x
      value: -0
      objectReference: {fileID: 0}
    - target: {fileID: 6668412175965637131, guid: 3f739463b4a73c04aac223cbe044a06d, type: 3}
      propertyPath: m_LocalRotation.y
      value: -0
      objectReference: {fileID: 0}
    - target: {fileID: 6668412175965637131, guid: 3f739463b4a73c04aac223cbe044a06d, type: 3}
      propertyPath: m_LocalRotation.z
      value: -0
      objectReference: {fileID: 0}
    - target: {fileID: 6668412175965637131, guid: 3f739463b4a73c04aac223cbe044a06d, type: 3}
      propertyPath: m_LocalEulerAnglesHint.x
      value: 0
      objectReference: {fileID: 0}
    - target: {fileID: 6668412175965637131, guid: 3f739463b4a73c04aac223cbe044a06d, type: 3}
      propertyPath: m_LocalEulerAnglesHint.y
      value: 0
      objectReference: {fileID: 0}
    - target: {fileID: 6668412175965637131, guid: 3f739463b4a73c04aac223cbe044a06d, type: 3}
      propertyPath: m_LocalEulerAnglesHint.z
      value: 0
      objectReference: {fileID: 0}
    m_RemovedComponents: []
    m_RemovedGameObjects: []
    m_AddedGameObjects: []
    m_AddedComponents: []
  m_SourcePrefab: {fileID: 100100000, guid: 3f739463b4a73c04aac223cbe044a06d, type: 3}
--- !u!1001 &824737740
PrefabInstance:
  m_ObjectHideFlags: 0
  serializedVersion: 2
  m_Modification:
    serializedVersion: 3
    m_TransformParent: {fileID: 0}
    m_Modifications:
    - target: {fileID: 6526445825394902505, guid: cad553b814f65fa41a7453251a97f08d, type: 3}
      propertyPath: acterNamesDict.values.Array.data[0]
      value: 
      objectReference: {fileID: 0}
    - target: {fileID: 6526445825394902505, guid: cad553b814f65fa41a7453251a97f08d, type: 3}
      propertyPath: acterNamesDict.values.Array.data[1]
      value: 
      objectReference: {fileID: 0}
    - target: {fileID: 6526445825394902505, guid: cad553b814f65fa41a7453251a97f08d, type: 3}
      propertyPath: acterNamesDict.values.Array.data[2]
      value: 
      objectReference: {fileID: 0}
    - target: {fileID: 6526445825394902505, guid: cad553b814f65fa41a7453251a97f08d, type: 3}
      propertyPath: acterNamesDict.values.Array.data[3]
      value: 
      objectReference: {fileID: 0}
    - target: {fileID: 6526445825394902505, guid: cad553b814f65fa41a7453251a97f08d, type: 3}
      propertyPath: acterNamesDict.values.Array.data[4]
      value: 
      objectReference: {fileID: 0}
    - target: {fileID: 6526445825394902505, guid: cad553b814f65fa41a7453251a97f08d, type: 3}
      propertyPath: acterNamesDict.values.Array.data[5]
      value: 
      objectReference: {fileID: 0}
    - target: {fileID: 6526445825394902505, guid: cad553b814f65fa41a7453251a97f08d, type: 3}
      propertyPath: acterNamesDict.values.Array.data[6]
      value: 
      objectReference: {fileID: 0}
    - target: {fileID: 6526445825394902505, guid: cad553b814f65fa41a7453251a97f08d, type: 3}
      propertyPath: acterNamesDict.values.Array.data[7]
      value: 
      objectReference: {fileID: 0}
    - target: {fileID: 6526445825394902505, guid: cad553b814f65fa41a7453251a97f08d, type: 3}
      propertyPath: acterNamesDict.values.Array.data[8]
      value: 
      objectReference: {fileID: 0}
    - target: {fileID: 6526445825394902505, guid: cad553b814f65fa41a7453251a97f08d, type: 3}
      propertyPath: acterNamesDict.values.Array.data[9]
      value: 
      objectReference: {fileID: 0}
    - target: {fileID: 6526445825394902505, guid: cad553b814f65fa41a7453251a97f08d, type: 3}
      propertyPath: acterNamesDict.values.Array.data[10]
      value: 
      objectReference: {fileID: 0}
    - target: {fileID: 6526445825394902505, guid: cad553b814f65fa41a7453251a97f08d, type: 3}
      propertyPath: acterNamesDict.values.Array.data[11]
      value: 
      objectReference: {fileID: 0}
    - target: {fileID: 6526445825394902505, guid: cad553b814f65fa41a7453251a97f08d, type: 3}
      propertyPath: acterNamesDict.values.Array.data[12]
      value: 
      objectReference: {fileID: 0}
    - target: {fileID: 6526445825394902505, guid: cad553b814f65fa41a7453251a97f08d, type: 3}
      propertyPath: acterNamesDict.values.Array.data[13]
      value: 
      objectReference: {fileID: 0}
    - target: {fileID: 6526445825394902505, guid: cad553b814f65fa41a7453251a97f08d, type: 3}
      propertyPath: acterNamesDict.values.Array.data[14]
      value: 
      objectReference: {fileID: 961722791}
    - target: {fileID: 6526445825394902505, guid: cad553b814f65fa41a7453251a97f08d, type: 3}
      propertyPath: acterNamesDict.values.Array.data[15]
      value: 
      objectReference: {fileID: 0}
    - target: {fileID: 6526445825394902505, guid: cad553b814f65fa41a7453251a97f08d, type: 3}
      propertyPath: acterNamesDict.values.Array.data[16]
      value: 
      objectReference: {fileID: 0}
    - target: {fileID: 6526445825394902505, guid: cad553b814f65fa41a7453251a97f08d, type: 3}
      propertyPath: acterNamesDict.values.Array.data[17]
      value: 
      objectReference: {fileID: 0}
    - target: {fileID: 6526445825394902505, guid: cad553b814f65fa41a7453251a97f08d, type: 3}
      propertyPath: acterNamesDict.values.Array.data[18]
      value: 
      objectReference: {fileID: 0}
    - target: {fileID: 6891696328769607375, guid: cad553b814f65fa41a7453251a97f08d, type: 3}
      propertyPath: m_RootOrder
      value: 0
      objectReference: {fileID: 0}
    - target: {fileID: 6891696328769607375, guid: cad553b814f65fa41a7453251a97f08d, type: 3}
      propertyPath: m_LocalPosition.x
      value: 0
      objectReference: {fileID: 0}
    - target: {fileID: 6891696328769607375, guid: cad553b814f65fa41a7453251a97f08d, type: 3}
      propertyPath: m_LocalPosition.y
      value: 0
      objectReference: {fileID: 0}
    - target: {fileID: 6891696328769607375, guid: cad553b814f65fa41a7453251a97f08d, type: 3}
      propertyPath: m_LocalPosition.z
      value: 0
      objectReference: {fileID: 0}
    - target: {fileID: 6891696328769607375, guid: cad553b814f65fa41a7453251a97f08d, type: 3}
      propertyPath: m_LocalRotation.w
      value: 1
      objectReference: {fileID: 0}
    - target: {fileID: 6891696328769607375, guid: cad553b814f65fa41a7453251a97f08d, type: 3}
      propertyPath: m_LocalRotation.x
      value: 0
      objectReference: {fileID: 0}
    - target: {fileID: 6891696328769607375, guid: cad553b814f65fa41a7453251a97f08d, type: 3}
      propertyPath: m_LocalRotation.y
      value: 0
      objectReference: {fileID: 0}
    - target: {fileID: 6891696328769607375, guid: cad553b814f65fa41a7453251a97f08d, type: 3}
      propertyPath: m_LocalRotation.z
      value: 0
      objectReference: {fileID: 0}
    - target: {fileID: 6891696328769607375, guid: cad553b814f65fa41a7453251a97f08d, type: 3}
      propertyPath: m_LocalEulerAnglesHint.x
      value: 0
      objectReference: {fileID: 0}
    - target: {fileID: 6891696328769607375, guid: cad553b814f65fa41a7453251a97f08d, type: 3}
      propertyPath: m_LocalEulerAnglesHint.y
      value: 0
      objectReference: {fileID: 0}
    - target: {fileID: 6891696328769607375, guid: cad553b814f65fa41a7453251a97f08d, type: 3}
      propertyPath: m_LocalEulerAnglesHint.z
      value: 0
      objectReference: {fileID: 0}
    - target: {fileID: 7013743216675466472, guid: cad553b814f65fa41a7453251a97f08d, type: 3}
      propertyPath: m_Name
      value: Game Manager
      objectReference: {fileID: 0}
    m_RemovedComponents: []
    m_RemovedGameObjects: []
    m_AddedGameObjects: []
    m_AddedComponents: []
  m_SourcePrefab: {fileID: 100100000, guid: cad553b814f65fa41a7453251a97f08d, type: 3}
--- !u!4 &961722788 stripped
Transform:
  m_CorrespondingSourceObject: {fileID: 6668412175965637131, guid: 3f739463b4a73c04aac223cbe044a06d, type: 3}
  m_PrefabInstance: {fileID: 691160205}
  m_PrefabAsset: {fileID: 0}
--- !u!114 &961722791 stripped
MonoBehaviour:
  m_CorrespondingSourceObject: {fileID: 3409211781023938621, guid: 3f739463b4a73c04aac223cbe044a06d, type: 3}
  m_PrefabInstance: {fileID: 691160205}
  m_PrefabAsset: {fileID: 0}
  m_GameObject: {fileID: 0}
  m_Enabled: 1
  m_EditorHideFlags: 0
  m_Script: {fileID: 11500000, guid: 2780581258339f844bfa25475e364df4, type: 3}
  m_Name: 
  m_EditorClassIdentifier: 
--- !u!1 &2145944172
GameObject:
  m_ObjectHideFlags: 0
  m_CorrespondingSourceObject: {fileID: 0}
  m_PrefabInstance: {fileID: 0}
  m_PrefabAsset: {fileID: 0}
  serializedVersion: 6
  m_Component:
  - component: {fileID: 2145944173}
  m_Layer: 0
  m_Name: State
  m_TagString: Untagged
  m_Icon: {fileID: 0}
  m_NavMeshLayer: 0
  m_StaticEditorFlags: 0
  m_IsActive: 1
--- !u!4 &2145944173
Transform:
  m_ObjectHideFlags: 0
  m_CorrespondingSourceObject: {fileID: 0}
  m_PrefabInstance: {fileID: 0}
  m_PrefabAsset: {fileID: 0}
  m_GameObject: {fileID: 2145944172}
  m_LocalRotation: {x: 0, y: 0, z: 0, w: 1}
  m_LocalPosition: {x: 0, y: 0, z: 0}
  m_LocalScale: {x: 1, y: 1, z: 1}
  m_ConstrainProportionsScale: 0
  m_Children:
  - {fileID: 961722788}
  m_Father: {fileID: 0}
  m_RootOrder: 1
  m_LocalEulerAnglesHint: {x: 0, y: 0, z: 0}
